year,all,skin_diseases,mental_disorders,eye_ear_diseases,musculoskeletal_system,parasitic_diseases,diabetes,external_causes,genitourinary_system,nervous_system,neoplasm,circulatory_system,pregnancy
1999,76.56417158209918,57.40787989652311,70.12837937347662,53.23899418853236,70.2158292145426,41.85464711856222,65.46172007776994,73.49628086627933,66.23106153612545,70.59330579882547,45.856759893246505,70.86710749867649,64.77202057563547
2000,79.60336616493426,59.48756455953558,69.58612600744291,40.59878550996043,78.66407699054868,,64.75087601916773,76.52594734061944,79.43756484211654,66.98603249128418,45.80115530773441,71.56592333554863,66.35131349312071
2001,76.42709821424187,64.90156875867429,69.34897556287683,,78.97482486354849,16.821558776907597,66.3644378303324,75.37650320044375,73.2083038921184,78.82994738492972,50.45828528690075,88.08704003799093,65.51083392541528
2002,78.45996973138372,66.59611282590426,73.22557198252838,51.656646008751416,72.934846532303,59.34305153283774,65.72410671164519,73.63804004981162,78.10650572115246,65.63775990729451,50.95496573332176,81.02349935273006,67.58880569076013
2003,77.963818436188,75.15618443333936,67.00741123369271,45.86711870179239,64.19490295526147,50.43229792079336,24.191823487351687,72.39692594395756,71.46924534801607,63.124511377837486,57.91651377089087,78.30453644499997,66.62041337058959
2004,74.74901270233386,66.83179492550018,67.9966510207093,,63.04514293474264,62.99518581666887,64.37788574323994,70.08191868199849,72.93649629869408,61.9110266343285,59.367389578670895,77.65244429706941,67.11152419196792
2005,78.11654178946974,51.250150621946425,70.13140155129051,50.69859934868058,65.69848694367192,17.573029917233665,70.69236846903921,82.08300949962829,77.75435170011228,55.70366958202055,61.7848393885311,76.79428761096653,65.59239769161772
2006,77.05899472288732,67.10171305069814,73.55570961253281,54.91285372237628,55.855410976775744,16.440907704265236,32.375412196195185,79.86962884708336,74.77743166519785,54.82489702275355,58.15350523965635,78.08326264828406,71.94402188097057
2007,78.49936555502872,60.4417684445288,73.15399234888244,45.90650956346549,61.00884708093647,20.86537737052236,39.00894006226689,76.91397021254132,79.58313496659112,50.37342431281543,57.35227395938119,78.81354333106445,69.19420790192353
2008,78.1095730161525,60.89481965912464,80.0381650280759,34.06765897140729,62.692939869246736,35.7742554200653,18.738072668282346,76.98925510336879,69.38570334510614,58.82285027358265,59.09692818506704,86.08859790177202,77.52285271203512
2009,84.52801145958226,66.99635577837172,80.04192070245566,51.33099884345042,63.809188359931454,51.81735125169812,42.95419839184663,80.99748412963534,74.13290384440447,56.4100871814325,61.93666370225701,88.28190049646174,73.94344630593709
2010,91.23527006769037,63.76555006625384,77.93006121183423,,66.11285161327294,17.49404959533716,60.887686254417176,74.38159407873192,74.49460747583039,60.66165640279194,67.46286416857404,85.38962324745137,80.63961712070314
2011,86.92575489934936,63.95371832170217,78.22119505296864,49.49623134072646,59.77430299606629,37.067643229345,53.7718221744243,82.17829489532188,71.56802044862094,63.14033433220818,68.3618410900687,83.75900045782734,71.18798841219173
2012,88.64885438628517,65.15198973540724,80.40439368332561,49.97403750599804,56.696609569162135,20.964468762952823,51.12393703735641,77.43205283991641,72.74107656871497,55.63308338852162,71.02223749937865,85.84097345504898,74.27406044750487
2013,86.33138660645568,56.97360508927025,76.92179101446183,49.281278197005946,50.435234134446326,19.56819379011658,19.80247086117184,81.61756675834972,76.73367282183806,49.67094936456813,83.69072755078072,85.951841979078,70.55634881119738
2014,91.67484704174622,67.20745640090806,77.19885100872773,58.98091480208204,59.67242698848688,18.247811185850065,48.71201617192648,77.10433780047904,76.81380213075698,50.42988980358278,75.38751458142524,83.21623950063635,73.47462363651098
2015,92.13005641659194,66.4062999946212,55.74953559875557,57.73290350171033,51.99294467173347,16.7464357403913,67.78554318622044,80.25412175190442,86.84465210099005,54.88067037647031,79.8234472528594,84.84533490876197,77.25617319122145
2016,89.03220114141538,69.71093525898667,71.64881493178848,52.20193419507802,54.99829899111114,18.34849800687516,43.99674898009851,76.19858228499216,84.14591703238271,54.12000366959091,82.21606305747277,87.454721945453,83.39926700676635
2017,86.49789980237118,55.05235890040486,57.28027624281388,50.40256373716115,53.80208083124968,,41.85802425631057,83.78333513549907,76.95150578589868,64.04506147560319,79.84448982119622,85.26031302695536,74.80682963462742
2018,90.82205829348015,65.88779039868837,52.51616631088488,,64.39103546385344,20.43283262573517,59.25755168024078,85.34813913614214,81.80206390165789,60.85369121460623,80.83157672027195,82.90737463260142,74.79026528579158
2019,93.3262543548596,71.08154041284998,64.3210063947258,54.851797384883504,59.81251482260247,14.81659040311246,72.96547271089027,77.7056143023772,79.31378222219334,61.16420848870992,83.04531189935602,84.57179611070977,71.33830024808883
