year,from,to,hospitalizations
1998,"{'latlong': [-41.74084505657541, -21.799306433880908], 'name': 'Macrorregião III'}","{'latlong': [-41.74084505657541, -21.799306433880908], 'name': 'Macrorregião III'}",1884
1998,"{'latlong': [-41.74084505657541, -21.799306433880908], 'name': 'Macrorregião III'}","{'latlong': [-42.78374566691811, -22.435006717319105], 'name': 'Macrorregião II'}",24
1998,"{'latlong': [-42.78374566691811, -22.435006717319105], 'name': 'Macrorregião II'}","{'latlong': [-41.74084505657541, -21.799306433880908], 'name': 'Macrorregião III'}",19
1998,"{'latlong': [-42.78374566691811, -22.435006717319105], 'name': 'Macrorregião II'}","{'latlong': [-42.78374566691811, -22.435006717319105], 'name': 'Macrorregião II'}",8244
1998,"{'latlong': [-42.78374566691811, -22.435006717319105], 'name': 'Macrorregião II'}","{'latlong': [-43.93088259914695, -22.50640773396086], 'name': 'Metropolitana I'}",97
1998,"{'latlong': [-43.93088259914695, -22.50640773396086], 'name': 'Metropolitana I'}","{'latlong': [-42.78374566691811, -22.435006717319105], 'name': 'Macrorregião II'}",24
1998,"{'latlong': [-43.93088259914695, -22.50640773396086], 'name': 'Metropolitana I'}","{'latlong': [-43.93088259914695, -22.50640773396086], 'name': 'Metropolitana I'}",1329
1999,"{'latlong': [-41.74084505657541, -21.799306433880908], 'name': 'Macrorregião III'}","{'latlong': [-41.74084505657541, -21.799306433880908], 'name': 'Macrorregião III'}",2195
1999,"{'latlong': [-41.74084505657541, -21.799306433880908], 'name': 'Macrorregião III'}","{'latlong': [-42.78374566691811, -22.435006717319105], 'name': 'Macrorregião II'}",43
1999,"{'latlong': [-42.78374566691811, -22.435006717319105], 'name': 'Macrorregião II'}","{'latlong': [-41.74084505657541, -21.799306433880908], 'name': 'Macrorregião III'}",6
1999,"{'latlong': [-42.78374566691811, -22.435006717319105], 'name': 'Macrorregião II'}","{'latlong': [-42.78374566691811, -22.435006717319105], 'name': 'Macrorregião II'}",8908
1999,"{'latlong': [-42.78374566691811, -22.435006717319105], 'name': 'Macrorregião II'}","{'latlong': [-43.93088259914695, -22.50640773396086], 'name': 'Metropolitana I'}",88
1999,"{'latlong': [-43.93088259914695, -22.50640773396086], 'name': 'Metropolitana I'}","{'latlong': [-41.74084505657541, -21.799306433880908], 'name': 'Macrorregião III'}",2
1999,"{'latlong': [-43.93088259914695, -22.50640773396086], 'name': 'Metropolitana I'}","{'latlong': [-42.78374566691811, -22.435006717319105], 'name': 'Macrorregião II'}",25
1999,"{'latlong': [-43.93088259914695, -22.50640773396086], 'name': 'Metropolitana I'}","{'latlong': [-43.93088259914695, -22.50640773396086], 'name': 'Metropolitana I'}",1548
2000,"{'latlong': [-41.74084505657541, -21.799306433880908], 'name': 'Macrorregião III'}","{'latlong': [-41.74084505657541, -21.799306433880908], 'name': 'Macrorregião III'}",2445
2000,"{'latlong': [-41.74084505657541, -21.799306433880908], 'name': 'Macrorregião III'}","{'latlong': [-42.78374566691811, -22.435006717319105], 'name': 'Macrorregião II'}",44
2000,"{'latlong': [-42.78374566691811, -22.435006717319105], 'name': 'Macrorregião II'}","{'latlong': [-41.74084505657541, -21.799306433880908], 'name': 'Macrorregião III'}",10
2000,"{'latlong': [-42.78374566691811, -22.435006717319105], 'name': 'Macrorregião II'}","{'latlong': [-42.78374566691811, -22.435006717319105], 'name': 'Macrorregião II'}",8884
2000,"{'latlong': [-42.78374566691811, -22.435006717319105], 'name': 'Macrorregião II'}","{'latlong': [-43.93088259914695, -22.50640773396086], 'name': 'Metropolitana I'}",46
2000,"{'latlong': [-43.93088259914695, -22.50640773396086], 'name': 'Metropolitana I'}","{'latlong': [-41.74084505657541, -21.799306433880908], 'name': 'Macrorregião III'}",1
2000,"{'latlong': [-43.93088259914695, -22.50640773396086], 'name': 'Metropolitana I'}","{'latlong': [-42.78374566691811, -22.435006717319105], 'name': 'Macrorregião II'}",15
2000,"{'latlong': [-43.93088259914695, -22.50640773396086], 'name': 'Metropolitana I'}","{'latlong': [-43.93088259914695, -22.50640773396086], 'name': 'Metropolitana I'}",1693
2001,"{'latlong': [-41.74084505657541, -21.799306433880908], 'name': 'Macrorregião III'}","{'latlong': [-41.74084505657541, -21.799306433880908], 'name': 'Macrorregião III'}",2363
2001,"{'latlong': [-41.74084505657541, -21.799306433880908], 'name': 'Macrorregião III'}","{'latlong': [-42.78374566691811, -22.435006717319105], 'name': 'Macrorregião II'}",29
2001,"{'latlong': [-42.78374566691811, -22.435006717319105], 'name': 'Macrorregião II'}","{'latlong': [-41.74084505657541, -21.799306433880908], 'name': 'Macrorregião III'}",5
2001,"{'latlong': [-42.78374566691811, -22.435006717319105], 'name': 'Macrorregião II'}","{'latlong': [-42.78374566691811, -22.435006717319105], 'name': 'Macrorregião II'}",8747
2001,"{'latlong': [-42.78374566691811, -22.435006717319105], 'name': 'Macrorregião II'}","{'latlong': [-43.93088259914695, -22.50640773396086], 'name': 'Metropolitana I'}",73
2001,"{'latlong': [-43.93088259914695, -22.50640773396086], 'name': 'Metropolitana I'}","{'latlong': [-41.74084505657541, -21.799306433880908], 'name': 'Macrorregião III'}",1
2001,"{'latlong': [-43.93088259914695, -22.50640773396086], 'name': 'Metropolitana I'}","{'latlong': [-42.78374566691811, -22.435006717319105], 'name': 'Macrorregião II'}",6
2001,"{'latlong': [-43.93088259914695, -22.50640773396086], 'name': 'Metropolitana I'}","{'latlong': [-43.93088259914695, -22.50640773396086], 'name': 'Metropolitana I'}",1756
2002,"{'latlong': [-41.74084505657541, -21.799306433880908], 'name': 'Macrorregião III'}","{'latlong': [-41.74084505657541, -21.799306433880908], 'name': 'Macrorregião III'}",1994
2002,"{'latlong': [-41.74084505657541, -21.799306433880908], 'name': 'Macrorregião III'}","{'latlong': [-42.78374566691811, -22.435006717319105], 'name': 'Macrorregião II'}",12
2002,"{'latlong': [-42.78374566691811, -22.435006717319105], 'name': 'Macrorregião II'}","{'latlong': [-41.74084505657541, -21.799306433880908], 'name': 'Macrorregião III'}",13
2002,"{'latlong': [-42.78374566691811, -22.435006717319105], 'name': 'Macrorregião II'}","{'latlong': [-42.78374566691811, -22.435006717319105], 'name': 'Macrorregião II'}",8334
2002,"{'latlong': [-42.78374566691811, -22.435006717319105], 'name': 'Macrorregião II'}","{'latlong': [-43.93088259914695, -22.50640773396086], 'name': 'Metropolitana I'}",120
2002,"{'latlong': [-43.93088259914695, -22.50640773396086], 'name': 'Metropolitana I'}","{'latlong': [-42.78374566691811, -22.435006717319105], 'name': 'Macrorregião II'}",15
2002,"{'latlong': [-43.93088259914695, -22.50640773396086], 'name': 'Metropolitana I'}","{'latlong': [-43.93088259914695, -22.50640773396086], 'name': 'Metropolitana I'}",1855
2003,"{'latlong': [-41.74084505657541, -21.799306433880908], 'name': 'Macrorregião III'}","{'latlong': [-41.74084505657541, -21.799306433880908], 'name': 'Macrorregião III'}",1711
2003,"{'latlong': [-41.74084505657541, -21.799306433880908], 'name': 'Macrorregião III'}","{'latlong': [-42.78374566691811, -22.435006717319105], 'name': 'Macrorregião II'}",9
2003,"{'latlong': [-42.78374566691811, -22.435006717319105], 'name': 'Macrorregião II'}","{'latlong': [-41.74084505657541, -21.799306433880908], 'name': 'Macrorregião III'}",9
2003,"{'latlong': [-42.78374566691811, -22.435006717319105], 'name': 'Macrorregião II'}","{'latlong': [-42.78374566691811, -22.435006717319105], 'name': 'Macrorregião II'}",8184
2003,"{'latlong': [-42.78374566691811, -22.435006717319105], 'name': 'Macrorregião II'}","{'latlong': [-43.93088259914695, -22.50640773396086], 'name': 'Metropolitana I'}",124
2003,"{'latlong': [-43.93088259914695, -22.50640773396086], 'name': 'Metropolitana I'}","{'latlong': [-42.78374566691811, -22.435006717319105], 'name': 'Macrorregião II'}",4
2003,"{'latlong': [-43.93088259914695, -22.50640773396086], 'name': 'Metropolitana I'}","{'latlong': [-43.93088259914695, -22.50640773396086], 'name': 'Metropolitana I'}",1603
2004,"{'latlong': [-41.74084505657541, -21.799306433880908], 'name': 'Macrorregião III'}","{'latlong': [-41.74084505657541, -21.799306433880908], 'name': 'Macrorregião III'}",1759
2004,"{'latlong': [-41.74084505657541, -21.799306433880908], 'name': 'Macrorregião III'}","{'latlong': [-42.78374566691811, -22.435006717319105], 'name': 'Macrorregião II'}",11
2004,"{'latlong': [-42.78374566691811, -22.435006717319105], 'name': 'Macrorregião II'}","{'latlong': [-41.74084505657541, -21.799306433880908], 'name': 'Macrorregião III'}",2
2004,"{'latlong': [-42.78374566691811, -22.435006717319105], 'name': 'Macrorregião II'}","{'latlong': [-42.78374566691811, -22.435006717319105], 'name': 'Macrorregião II'}",7942
2004,"{'latlong': [-42.78374566691811, -22.435006717319105], 'name': 'Macrorregião II'}","{'latlong': [-43.93088259914695, -22.50640773396086], 'name': 'Metropolitana I'}",104
2004,"{'latlong': [-43.93088259914695, -22.50640773396086], 'name': 'Metropolitana I'}","{'latlong': [-42.78374566691811, -22.435006717319105], 'name': 'Macrorregião II'}",13
2004,"{'latlong': [-43.93088259914695, -22.50640773396086], 'name': 'Metropolitana I'}","{'latlong': [-43.93088259914695, -22.50640773396086], 'name': 'Metropolitana I'}",1640
2005,"{'latlong': [-41.74084505657541, -21.799306433880908], 'name': 'Macrorregião III'}","{'latlong': [-41.74084505657541, -21.799306433880908], 'name': 'Macrorregião III'}",1962
2005,"{'latlong': [-41.74084505657541, -21.799306433880908], 'name': 'Macrorregião III'}","{'latlong': [-42.78374566691811, -22.435006717319105], 'name': 'Macrorregião II'}",3
2005,"{'latlong': [-42.78374566691811, -22.435006717319105], 'name': 'Macrorregião II'}","{'latlong': [-41.74084505657541, -21.799306433880908], 'name': 'Macrorregião III'}",4
2005,"{'latlong': [-42.78374566691811, -22.435006717319105], 'name': 'Macrorregião II'}","{'latlong': [-42.78374566691811, -22.435006717319105], 'name': 'Macrorregião II'}",7736
2005,"{'latlong': [-42.78374566691811, -22.435006717319105], 'name': 'Macrorregião II'}","{'latlong': [-43.93088259914695, -22.50640773396086], 'name': 'Metropolitana I'}",140
2005,"{'latlong': [-43.93088259914695, -22.50640773396086], 'name': 'Metropolitana I'}","{'latlong': [-42.78374566691811, -22.435006717319105], 'name': 'Macrorregião II'}",3
2005,"{'latlong': [-43.93088259914695, -22.50640773396086], 'name': 'Metropolitana I'}","{'latlong': [-43.93088259914695, -22.50640773396086], 'name': 'Metropolitana I'}",1955
2006,"{'latlong': [-41.74084505657541, -21.799306433880908], 'name': 'Macrorregião III'}","{'latlong': [-41.74084505657541, -21.799306433880908], 'name': 'Macrorregião III'}",1922
2006,"{'latlong': [-41.74084505657541, -21.799306433880908], 'name': 'Macrorregião III'}","{'latlong': [-42.78374566691811, -22.435006717319105], 'name': 'Macrorregião II'}",4
2006,"{'latlong': [-42.78374566691811, -22.435006717319105], 'name': 'Macrorregião II'}","{'latlong': [-41.74084505657541, -21.799306433880908], 'name': 'Macrorregião III'}",3
2006,"{'latlong': [-42.78374566691811, -22.435006717319105], 'name': 'Macrorregião II'}","{'latlong': [-42.78374566691811, -22.435006717319105], 'name': 'Macrorregião II'}",7798
2006,"{'latlong': [-42.78374566691811, -22.435006717319105], 'name': 'Macrorregião II'}","{'latlong': [-43.93088259914695, -22.50640773396086], 'name': 'Metropolitana I'}",111
2006,"{'latlong': [-43.93088259914695, -22.50640773396086], 'name': 'Metropolitana I'}","{'latlong': [-42.78374566691811, -22.435006717319105], 'name': 'Macrorregião II'}",18
2006,"{'latlong': [-43.93088259914695, -22.50640773396086], 'name': 'Metropolitana I'}","{'latlong': [-43.93088259914695, -22.50640773396086], 'name': 'Metropolitana I'}",2007
2007,"{'latlong': [-41.74084505657541, -21.799306433880908], 'name': 'Macrorregião III'}","{'latlong': [-41.74084505657541, -21.799306433880908], 'name': 'Macrorregião III'}",1819
2007,"{'latlong': [-41.74084505657541, -21.799306433880908], 'name': 'Macrorregião III'}","{'latlong': [-42.78374566691811, -22.435006717319105], 'name': 'Macrorregião II'}",13
2007,"{'latlong': [-42.78374566691811, -22.435006717319105], 'name': 'Macrorregião II'}","{'latlong': [-41.74084505657541, -21.799306433880908], 'name': 'Macrorregião III'}",3
2007,"{'latlong': [-42.78374566691811, -22.435006717319105], 'name': 'Macrorregião II'}","{'latlong': [-42.78374566691811, -22.435006717319105], 'name': 'Macrorregião II'}",8378
2007,"{'latlong': [-42.78374566691811, -22.435006717319105], 'name': 'Macrorregião II'}","{'latlong': [-43.93088259914695, -22.50640773396086], 'name': 'Metropolitana I'}",78
2007,"{'latlong': [-43.93088259914695, -22.50640773396086], 'name': 'Metropolitana I'}","{'latlong': [-42.78374566691811, -22.435006717319105], 'name': 'Macrorregião II'}",14
2007,"{'latlong': [-43.93088259914695, -22.50640773396086], 'name': 'Metropolitana I'}","{'latlong': [-43.93088259914695, -22.50640773396086], 'name': 'Metropolitana I'}",1811
2008,"{'latlong': [-41.74084505657541, -21.799306433880908], 'name': 'Macrorregião III'}","{'latlong': [-41.74084505657541, -21.799306433880908], 'name': 'Macrorregião III'}",2105
2008,"{'latlong': [-41.74084505657541, -21.799306433880908], 'name': 'Macrorregião III'}","{'latlong': [-42.78374566691811, -22.435006717319105], 'name': 'Macrorregião II'}",22
2008,"{'latlong': [-41.74084505657541, -21.799306433880908], 'name': 'Macrorregião III'}","{'latlong': [-43.93088259914695, -22.50640773396086], 'name': 'Metropolitana I'}",1
2008,"{'latlong': [-42.78374566691811, -22.435006717319105], 'name': 'Macrorregião II'}","{'latlong': [-41.74084505657541, -21.799306433880908], 'name': 'Macrorregião III'}",4
2008,"{'latlong': [-42.78374566691811, -22.435006717319105], 'name': 'Macrorregião II'}","{'latlong': [-42.78374566691811, -22.435006717319105], 'name': 'Macrorregião II'}",7490
2008,"{'latlong': [-42.78374566691811, -22.435006717319105], 'name': 'Macrorregião II'}","{'latlong': [-43.93088259914695, -22.50640773396086], 'name': 'Metropolitana I'}",142
2008,"{'latlong': [-43.93088259914695, -22.50640773396086], 'name': 'Metropolitana I'}","{'latlong': [-42.78374566691811, -22.435006717319105], 'name': 'Macrorregião II'}",13
2008,"{'latlong': [-43.93088259914695, -22.50640773396086], 'name': 'Metropolitana I'}","{'latlong': [-43.93088259914695, -22.50640773396086], 'name': 'Metropolitana I'}",2078
2009,"{'latlong': [-41.74084505657541, -21.799306433880908], 'name': 'Macrorregião III'}","{'latlong': [-41.74084505657541, -21.799306433880908], 'name': 'Macrorregião III'}",2234
2009,"{'latlong': [-41.74084505657541, -21.799306433880908], 'name': 'Macrorregião III'}","{'latlong': [-42.78374566691811, -22.435006717319105], 'name': 'Macrorregião II'}",18
2009,"{'latlong': [-42.78374566691811, -22.435006717319105], 'name': 'Macrorregião II'}","{'latlong': [-41.74084505657541, -21.799306433880908], 'name': 'Macrorregião III'}",6
2009,"{'latlong': [-42.78374566691811, -22.435006717319105], 'name': 'Macrorregião II'}","{'latlong': [-42.78374566691811, -22.435006717319105], 'name': 'Macrorregião II'}",8133
2009,"{'latlong': [-42.78374566691811, -22.435006717319105], 'name': 'Macrorregião II'}","{'latlong': [-43.93088259914695, -22.50640773396086], 'name': 'Metropolitana I'}",105
2009,"{'latlong': [-43.93088259914695, -22.50640773396086], 'name': 'Metropolitana I'}","{'latlong': [-42.78374566691811, -22.435006717319105], 'name': 'Macrorregião II'}",10
2009,"{'latlong': [-43.93088259914695, -22.50640773396086], 'name': 'Metropolitana I'}","{'latlong': [-43.93088259914695, -22.50640773396086], 'name': 'Metropolitana I'}",2014
2010,"{'latlong': [-41.74084505657541, -21.799306433880908], 'name': 'Macrorregião III'}","{'latlong': [-41.74084505657541, -21.799306433880908], 'name': 'Macrorregião III'}",2237
2010,"{'latlong': [-41.74084505657541, -21.799306433880908], 'name': 'Macrorregião III'}","{'latlong': [-42.78374566691811, -22.435006717319105], 'name': 'Macrorregião II'}",13
2010,"{'latlong': [-42.78374566691811, -22.435006717319105], 'name': 'Macrorregião II'}","{'latlong': [-41.74084505657541, -21.799306433880908], 'name': 'Macrorregião III'}",7
2010,"{'latlong': [-42.78374566691811, -22.435006717319105], 'name': 'Macrorregião II'}","{'latlong': [-42.78374566691811, -22.435006717319105], 'name': 'Macrorregião II'}",7516
2010,"{'latlong': [-42.78374566691811, -22.435006717319105], 'name': 'Macrorregião II'}","{'latlong': [-43.93088259914695, -22.50640773396086], 'name': 'Metropolitana I'}",104
2010,"{'latlong': [-43.93088259914695, -22.50640773396086], 'name': 'Metropolitana I'}","{'latlong': [-42.78374566691811, -22.435006717319105], 'name': 'Macrorregião II'}",21
2010,"{'latlong': [-43.93088259914695, -22.50640773396086], 'name': 'Metropolitana I'}","{'latlong': [-43.93088259914695, -22.50640773396086], 'name': 'Metropolitana I'}",1955
2011,"{'latlong': [-41.74084505657541, -21.799306433880908], 'name': 'Macrorregião III'}","{'latlong': [-41.74084505657541, -21.799306433880908], 'name': 'Macrorregião III'}",2057
2011,"{'latlong': [-41.74084505657541, -21.799306433880908], 'name': 'Macrorregião III'}","{'latlong': [-42.78374566691811, -22.435006717319105], 'name': 'Macrorregião II'}",14
2011,"{'latlong': [-42.78374566691811, -22.435006717319105], 'name': 'Macrorregião II'}","{'latlong': [-41.74084505657541, -21.799306433880908], 'name': 'Macrorregião III'}",10
2011,"{'latlong': [-42.78374566691811, -22.435006717319105], 'name': 'Macrorregião II'}","{'latlong': [-42.78374566691811, -22.435006717319105], 'name': 'Macrorregião II'}",6594
2011,"{'latlong': [-42.78374566691811, -22.435006717319105], 'name': 'Macrorregião II'}","{'latlong': [-43.93088259914695, -22.50640773396086], 'name': 'Metropolitana I'}",31
2011,"{'latlong': [-43.93088259914695, -22.50640773396086], 'name': 'Metropolitana I'}","{'latlong': [-42.78374566691811, -22.435006717319105], 'name': 'Macrorregião II'}",12
2011,"{'latlong': [-43.93088259914695, -22.50640773396086], 'name': 'Metropolitana I'}","{'latlong': [-43.93088259914695, -22.50640773396086], 'name': 'Metropolitana I'}",1773
2012,"{'latlong': [-41.74084505657541, -21.799306433880908], 'name': 'Macrorregião III'}","{'latlong': [-41.74084505657541, -21.799306433880908], 'name': 'Macrorregião III'}",2078
2012,"{'latlong': [-41.74084505657541, -21.799306433880908], 'name': 'Macrorregião III'}","{'latlong': [-42.78374566691811, -22.435006717319105], 'name': 'Macrorregião II'}",14
2012,"{'latlong': [-42.78374566691811, -22.435006717319105], 'name': 'Macrorregião II'}","{'latlong': [-41.74084505657541, -21.799306433880908], 'name': 'Macrorregião III'}",13
2012,"{'latlong': [-42.78374566691811, -22.435006717319105], 'name': 'Macrorregião II'}","{'latlong': [-42.78374566691811, -22.435006717319105], 'name': 'Macrorregião II'}",5665
2012,"{'latlong': [-42.78374566691811, -22.435006717319105], 'name': 'Macrorregião II'}","{'latlong': [-43.93088259914695, -22.50640773396086], 'name': 'Metropolitana I'}",33
2012,"{'latlong': [-43.93088259914695, -22.50640773396086], 'name': 'Metropolitana I'}","{'latlong': [-41.74084505657541, -21.799306433880908], 'name': 'Macrorregião III'}",1
2012,"{'latlong': [-43.93088259914695, -22.50640773396086], 'name': 'Metropolitana I'}","{'latlong': [-42.78374566691811, -22.435006717319105], 'name': 'Macrorregião II'}",11
2012,"{'latlong': [-43.93088259914695, -22.50640773396086], 'name': 'Metropolitana I'}","{'latlong': [-43.93088259914695, -22.50640773396086], 'name': 'Metropolitana I'}",1691
2013,"{'latlong': [-41.74084505657541, -21.799306433880908], 'name': 'Macrorregião III'}","{'latlong': [-41.74084505657541, -21.799306433880908], 'name': 'Macrorregião III'}",1710
2013,"{'latlong': [-41.74084505657541, -21.799306433880908], 'name': 'Macrorregião III'}","{'latlong': [-42.78374566691811, -22.435006717319105], 'name': 'Macrorregião II'}",12
2013,"{'latlong': [-42.78374566691811, -22.435006717319105], 'name': 'Macrorregião II'}","{'latlong': [-41.74084505657541, -21.799306433880908], 'name': 'Macrorregião III'}",7
2013,"{'latlong': [-42.78374566691811, -22.435006717319105], 'name': 'Macrorregião II'}","{'latlong': [-42.78374566691811, -22.435006717319105], 'name': 'Macrorregião II'}",5145
2013,"{'latlong': [-42.78374566691811, -22.435006717319105], 'name': 'Macrorregião II'}","{'latlong': [-43.93088259914695, -22.50640773396086], 'name': 'Metropolitana I'}",30
2013,"{'latlong': [-43.93088259914695, -22.50640773396086], 'name': 'Metropolitana I'}","{'latlong': [-41.74084505657541, -21.799306433880908], 'name': 'Macrorregião III'}",1
2013,"{'latlong': [-43.93088259914695, -22.50640773396086], 'name': 'Metropolitana I'}","{'latlong': [-42.78374566691811, -22.435006717319105], 'name': 'Macrorregião II'}",8
2013,"{'latlong': [-43.93088259914695, -22.50640773396086], 'name': 'Metropolitana I'}","{'latlong': [-43.93088259914695, -22.50640773396086], 'name': 'Metropolitana I'}",1484
2014,"{'latlong': [-41.74084505657541, -21.799306433880908], 'name': 'Macrorregião III'}","{'latlong': [-41.74084505657541, -21.799306433880908], 'name': 'Macrorregião III'}",1504
2014,"{'latlong': [-41.74084505657541, -21.799306433880908], 'name': 'Macrorregião III'}","{'latlong': [-42.78374566691811, -22.435006717319105], 'name': 'Macrorregião II'}",8
2014,"{'latlong': [-41.74084505657541, -21.799306433880908], 'name': 'Macrorregião III'}","{'latlong': [-43.93088259914695, -22.50640773396086], 'name': 'Metropolitana I'}",1
2014,"{'latlong': [-42.78374566691811, -22.435006717319105], 'name': 'Macrorregião II'}","{'latlong': [-41.74084505657541, -21.799306433880908], 'name': 'Macrorregião III'}",8
2014,"{'latlong': [-42.78374566691811, -22.435006717319105], 'name': 'Macrorregião II'}","{'latlong': [-42.78374566691811, -22.435006717319105], 'name': 'Macrorregião II'}",5385
2014,"{'latlong': [-42.78374566691811, -22.435006717319105], 'name': 'Macrorregião II'}","{'latlong': [-43.93088259914695, -22.50640773396086], 'name': 'Metropolitana I'}",26
2014,"{'latlong': [-43.93088259914695, -22.50640773396086], 'name': 'Metropolitana I'}","{'latlong': [-42.78374566691811, -22.435006717319105], 'name': 'Macrorregião II'}",10
2014,"{'latlong': [-43.93088259914695, -22.50640773396086], 'name': 'Metropolitana I'}","{'latlong': [-43.93088259914695, -22.50640773396086], 'name': 'Metropolitana I'}",1420
2015,"{'latlong': [-41.74084505657541, -21.799306433880908], 'name': 'Macrorregião III'}","{'latlong': [-41.74084505657541, -21.799306433880908], 'name': 'Macrorregião III'}",1475
2015,"{'latlong': [-41.74084505657541, -21.799306433880908], 'name': 'Macrorregião III'}","{'latlong': [-42.78374566691811, -22.435006717319105], 'name': 'Macrorregião II'}",10
2015,"{'latlong': [-42.78374566691811, -22.435006717319105], 'name': 'Macrorregião II'}","{'latlong': [-41.74084505657541, -21.799306433880908], 'name': 'Macrorregião III'}",4
2015,"{'latlong': [-42.78374566691811, -22.435006717319105], 'name': 'Macrorregião II'}","{'latlong': [-42.78374566691811, -22.435006717319105], 'name': 'Macrorregião II'}",5401
2015,"{'latlong': [-42.78374566691811, -22.435006717319105], 'name': 'Macrorregião II'}","{'latlong': [-43.93088259914695, -22.50640773396086], 'name': 'Metropolitana I'}",30
2015,"{'latlong': [-43.93088259914695, -22.50640773396086], 'name': 'Metropolitana I'}","{'latlong': [-42.78374566691811, -22.435006717319105], 'name': 'Macrorregião II'}",13
2015,"{'latlong': [-43.93088259914695, -22.50640773396086], 'name': 'Metropolitana I'}","{'latlong': [-43.93088259914695, -22.50640773396086], 'name': 'Metropolitana I'}",1369
2016,"{'latlong': [-41.74084505657541, -21.799306433880908], 'name': 'Macrorregião III'}","{'latlong': [-41.74084505657541, -21.799306433880908], 'name': 'Macrorregião III'}",1416
2016,"{'latlong': [-41.74084505657541, -21.799306433880908], 'name': 'Macrorregião III'}","{'latlong': [-42.78374566691811, -22.435006717319105], 'name': 'Macrorregião II'}",17
2016,"{'latlong': [-42.78374566691811, -22.435006717319105], 'name': 'Macrorregião II'}","{'latlong': [-41.74084505657541, -21.799306433880908], 'name': 'Macrorregião III'}",7
2016,"{'latlong': [-42.78374566691811, -22.435006717319105], 'name': 'Macrorregião II'}","{'latlong': [-42.78374566691811, -22.435006717319105], 'name': 'Macrorregião II'}",5060
2016,"{'latlong': [-42.78374566691811, -22.435006717319105], 'name': 'Macrorregião II'}","{'latlong': [-43.93088259914695, -22.50640773396086], 'name': 'Metropolitana I'}",51
2016,"{'latlong': [-43.93088259914695, -22.50640773396086], 'name': 'Metropolitana I'}","{'latlong': [-42.78374566691811, -22.435006717319105], 'name': 'Macrorregião II'}",9
2016,"{'latlong': [-43.93088259914695, -22.50640773396086], 'name': 'Metropolitana I'}","{'latlong': [-43.93088259914695, -22.50640773396086], 'name': 'Metropolitana I'}",1247
2017,"{'latlong': [-41.74084505657541, -21.799306433880908], 'name': 'Macrorregião III'}","{'latlong': [-41.74084505657541, -21.799306433880908], 'name': 'Macrorregião III'}",1372
2017,"{'latlong': [-41.74084505657541, -21.799306433880908], 'name': 'Macrorregião III'}","{'latlong': [-42.78374566691811, -22.435006717319105], 'name': 'Macrorregião II'}",14
2017,"{'latlong': [-41.74084505657541, -21.799306433880908], 'name': 'Macrorregião III'}","{'latlong': [-43.93088259914695, -22.50640773396086], 'name': 'Metropolitana I'}",3
2017,"{'latlong': [-42.78374566691811, -22.435006717319105], 'name': 'Macrorregião II'}","{'latlong': [-41.74084505657541, -21.799306433880908], 'name': 'Macrorregião III'}",21
2017,"{'latlong': [-42.78374566691811, -22.435006717319105], 'name': 'Macrorregião II'}","{'latlong': [-42.78374566691811, -22.435006717319105], 'name': 'Macrorregião II'}",4840
2017,"{'latlong': [-42.78374566691811, -22.435006717319105], 'name': 'Macrorregião II'}","{'latlong': [-43.93088259914695, -22.50640773396086], 'name': 'Metropolitana I'}",48
2017,"{'latlong': [-43.93088259914695, -22.50640773396086], 'name': 'Metropolitana I'}","{'latlong': [-41.74084505657541, -21.799306433880908], 'name': 'Macrorregião III'}",2
2017,"{'latlong': [-43.93088259914695, -22.50640773396086], 'name': 'Metropolitana I'}","{'latlong': [-42.78374566691811, -22.435006717319105], 'name': 'Macrorregião II'}",12
2017,"{'latlong': [-43.93088259914695, -22.50640773396086], 'name': 'Metropolitana I'}","{'latlong': [-43.93088259914695, -22.50640773396086], 'name': 'Metropolitana I'}",1222
2018,"{'latlong': [-41.74084505657541, -21.799306433880908], 'name': 'Macrorregião III'}","{'latlong': [-41.74084505657541, -21.799306433880908], 'name': 'Macrorregião III'}",1359
2018,"{'latlong': [-41.74084505657541, -21.799306433880908], 'name': 'Macrorregião III'}","{'latlong': [-42.78374566691811, -22.435006717319105], 'name': 'Macrorregião II'}",20
2018,"{'latlong': [-41.74084505657541, -21.799306433880908], 'name': 'Macrorregião III'}","{'latlong': [-43.93088259914695, -22.50640773396086], 'name': 'Metropolitana I'}",2
2018,"{'latlong': [-42.78374566691811, -22.435006717319105], 'name': 'Macrorregião II'}","{'latlong': [-41.74084505657541, -21.799306433880908], 'name': 'Macrorregião III'}",19
2018,"{'latlong': [-42.78374566691811, -22.435006717319105], 'name': 'Macrorregião II'}","{'latlong': [-42.78374566691811, -22.435006717319105], 'name': 'Macrorregião II'}",4969
2018,"{'latlong': [-42.78374566691811, -22.435006717319105], 'name': 'Macrorregião II'}","{'latlong': [-43.93088259914695, -22.50640773396086], 'name': 'Metropolitana I'}",48
2018,"{'latlong': [-43.93088259914695, -22.50640773396086], 'name': 'Metropolitana I'}","{'latlong': [-41.74084505657541, -21.799306433880908], 'name': 'Macrorregião III'}",2
2018,"{'latlong': [-43.93088259914695, -22.50640773396086], 'name': 'Metropolitana I'}","{'latlong': [-42.78374566691811, -22.435006717319105], 'name': 'Macrorregião II'}",14
2018,"{'latlong': [-43.93088259914695, -22.50640773396086], 'name': 'Metropolitana I'}","{'latlong': [-43.93088259914695, -22.50640773396086], 'name': 'Metropolitana I'}",1324
2019,"{'latlong': [-41.74084505657541, -21.799306433880908], 'name': 'Macrorregião III'}","{'latlong': [-41.74084505657541, -21.799306433880908], 'name': 'Macrorregião III'}",1568
2019,"{'latlong': [-41.74084505657541, -21.799306433880908], 'name': 'Macrorregião III'}","{'latlong': [-42.78374566691811, -22.435006717319105], 'name': 'Macrorregião II'}",22
2019,"{'latlong': [-41.74084505657541, -21.799306433880908], 'name': 'Macrorregião III'}","{'latlong': [-43.93088259914695, -22.50640773396086], 'name': 'Metropolitana I'}",6
2019,"{'latlong': [-42.78374566691811, -22.435006717319105], 'name': 'Macrorregião II'}","{'latlong': [-41.74084505657541, -21.799306433880908], 'name': 'Macrorregião III'}",12
2019,"{'latlong': [-42.78374566691811, -22.435006717319105], 'name': 'Macrorregião II'}","{'latlong': [-42.78374566691811, -22.435006717319105], 'name': 'Macrorregião II'}",5064
2019,"{'latlong': [-42.78374566691811, -22.435006717319105], 'name': 'Macrorregião II'}","{'latlong': [-43.93088259914695, -22.50640773396086], 'name': 'Metropolitana I'}",46
2019,"{'latlong': [-43.93088259914695, -22.50640773396086], 'name': 'Metropolitana I'}","{'latlong': [-41.74084505657541, -21.799306433880908], 'name': 'Macrorregião III'}",1
2019,"{'latlong': [-43.93088259914695, -22.50640773396086], 'name': 'Metropolitana I'}","{'latlong': [-42.78374566691811, -22.435006717319105], 'name': 'Macrorregião II'}",14
2019,"{'latlong': [-43.93088259914695, -22.50640773396086], 'name': 'Metropolitana I'}","{'latlong': [-43.93088259914695, -22.50640773396086], 'name': 'Metropolitana I'}",1303
2020,"{'latlong': [-41.74084505657541, -21.799306433880908], 'name': 'Macrorregião III'}","{'latlong': [-41.74084505657541, -21.799306433880908], 'name': 'Macrorregião III'}",492
2020,"{'latlong': [-41.74084505657541, -21.799306433880908], 'name': 'Macrorregião III'}","{'latlong': [-42.78374566691811, -22.435006717319105], 'name': 'Macrorregião II'}",7
2020,"{'latlong': [-41.74084505657541, -21.799306433880908], 'name': 'Macrorregião III'}","{'latlong': [-43.93088259914695, -22.50640773396086], 'name': 'Metropolitana I'}",1
2020,"{'latlong': [-42.78374566691811, -22.435006717319105], 'name': 'Macrorregião II'}","{'latlong': [-41.74084505657541, -21.799306433880908], 'name': 'Macrorregião III'}",8
2020,"{'latlong': [-42.78374566691811, -22.435006717319105], 'name': 'Macrorregião II'}","{'latlong': [-42.78374566691811, -22.435006717319105], 'name': 'Macrorregião II'}",1925
2020,"{'latlong': [-42.78374566691811, -22.435006717319105], 'name': 'Macrorregião II'}","{'latlong': [-43.93088259914695, -22.50640773396086], 'name': 'Metropolitana I'}",15
2020,"{'latlong': [-43.93088259914695, -22.50640773396086], 'name': 'Metropolitana I'}","{'latlong': [-42.78374566691811, -22.435006717319105], 'name': 'Macrorregião II'}",4
2020,"{'latlong': [-43.93088259914695, -22.50640773396086], 'name': 'Metropolitana I'}","{'latlong': [-43.93088259914695, -22.50640773396086], 'name': 'Metropolitana I'}",490
